"서비스구분","서비스ID","대분류명","소분류명","서비스상태","서비스명","결제방법","장소명","서비스대상","바로가기URL","장소X좌표","장소Y좌표","서비스개시시작일시","서비스개시종료일시","접수시작일시","접수종료일시","지역명"
"자체","S200103165126350162","교육","자연/과학","접수중","[서울하수도과학관]전문가 전시해설(수처리 전문가 외국인 단체)","무료","서울하수도과학관","성인(한국인(전문가))제한없음","http://yeyak.seoul.go.kr/reservation/view.web?rsvsvcid=S200103165126350162","37.56046588392465","127.06036618827113","2020-01-06 00:00:00.0","2020-12-31 00:00:00.0","2020-01-06 00:00:00.0","2020-12-20 00:00:00.0","성동구"
"자체","S200403152734047692","교육","체험/견학","접수종료","[청계천박물관] 2020년 '오감으로 만지는 청계천이야기' 교육생 모집","무료","청계천박물관(서울역사박물관 분관)","어린이(특수아동단체 초등1-6학년)","http://yeyak.seoul.go.kr/reservation/view.web?rsvsvcid=S200403152734047692","37.571266444339074","127.0350413529804","2020-04-06 00:00:00.0","2020-11-06 00:00:00.0","2020-04-06 11:00:00.0","2020-05-06 16:00:00.0","성동구"
"자체","S200403160137598961","교육","체험/견학","접수종료","[청계천박물관] 2020년 '톡톡톡 청계천' 교육생 모집","무료","청계천박물관(서울역사박물관 분관)","어린이(저소득층 가정 어린이단체 (초등1-6학년) )","http://yeyak.seoul.go.kr/reservation/view.web?rsvsvcid=S200403160137598961","37.571266444339074","127.0350413529804","2020-04-06 00:00:00.0","2020-11-14 00:00:00.0","2020-04-06 11:00:00.0","2020-05-06 16:00:00.0","성동구"
"자체","S200406134154280090","교육","체험/견학","접수종료","[청계천박물관] 2020년 '졸졸졸 개천 콸콸콸 준천' 교육생 모집","무료","청계천박물관(서울역사박물관 분관)","어린이(초등4~6학년 학급단체)","http://yeyak.seoul.go.kr/reservation/view.web?rsvsvcid=S200406134154280090","37.571266444339074","127.0350413529804","2020-04-07 00:00:00.0","2020-11-04 00:00:00.0","2020-04-07 11:00:00.0","2020-04-23 17:00:00.0","성동구"
"자체","S200424155611226283","교육","체험/견학","접수종료","[청계천박물관] 2020년 '졸졸졸 개천 콸콸콸 준천' 교육생 추가모집","무료","청계천박물관(서울역사박물관 분관)","어린이(초등4~6학년 학급단체)","http://yeyak.seoul.go.kr/reservation/view.web?rsvsvcid=S200424155611226283","37.571266444339074","127.0350413529804","2020-04-27 00:00:00.0","2020-11-04 00:00:00.0","2020-04-27 11:00:00.0","2020-05-14 17:00:00.0","성동구"
"자체","S200511093311531092","교육","체험/견학","예약일시중지","[청계천박물관] 2020년 6월 '청계천에서 들려주는 자연생태동화' 교육생 모집 ","무료","청계천박물관(서울역사박물관 분관)","유아(6~8세)","http://yeyak.seoul.go.kr/reservation/view.web?rsvsvcid=S200511093311531092","37.571266444339074","127.0350413529804","2020-05-11 00:00:00.0","2020-06-19 00:00:00.0","2020-05-11 11:00:00.0","2020-05-28 17:00:00.0","성동구"
"자체","S200511093807324328","교육","체험/견학","예약일시중지","[청계천박물관 개방형/단체] 2020년 6월 '우리들의 친구 청계천박물관' 교육생 모집","무료","청계천박물관(서울역사박물관 분관)","유아(유아 단체)","http://yeyak.seoul.go.kr/reservation/view.web?rsvsvcid=S200511093807324328","37.571266444339074","127.0350413529804","2020-05-11 00:00:00.0","2020-06-30 00:00:00.0","2020-05-11 11:00:00.0","2020-05-28 17:00:00.0","성동구"
"자체","S200511094908037724","교육","체험/견학","접수종료","[청계천박물관] 2020년 '오감으로 만지는 청계천이야기' 교육생 추가모집","무료","청계천박물관(서울역사박물관 분관)","어린이(특수아동단체 초등1-6학년)","http://yeyak.seoul.go.kr/reservation/view.web?rsvsvcid=S200511094908037724","37.571266444339074","127.0350413529804","2020-05-11 00:00:00.0","2020-11-06 00:00:00.0","2020-05-11 11:00:00.0","2020-06-03 16:00:00.0","성동구"
"자체","S200511100446903806","교육","체험/견학","접수종료","[청계천박물관] 2020년 '톡톡톡 청계천' 교육생 추가모집","무료","청계천박물관(서울역사박물관 분관)","어린이(저소득층 가정 어린이단체 (초등1-6학년) )","http://yeyak.seoul.go.kr/reservation/view.web?rsvsvcid=S200511100446903806","37.571266444339074","127.0350413529804","2020-05-11 00:00:00.0","2020-11-14 00:00:00.0","2020-05-11 11:00:00.0","2020-06-03 16:00:00.0","성동구"
"자체","S200511101927289282","교육","체험/견학","예약일시중지","[청계천박물관 개방형/개인] 2020년 6월 '우리들의 친구 청계천박물관' 교육생 모집","무료","청계천박물관(서울역사박물관 분관)","유아(5~7세)","http://yeyak.seoul.go.kr/reservation/view.web?rsvsvcid=S200511101927289282","37.571266444339074","127.0350413529804","2020-05-11 00:00:00.0","2020-06-30 00:00:00.0","2020-05-11 11:00:00.0","2020-05-28 17:00:00.0","성동구"
"자체","S200511104958450878","교육","체험/견학","예약일시중지","[청계천박물관 주말가족교육] 2020년 6월 '우리는 청계천 탐험대' 교육생 모집 ","무료","청계천박물관(서울역사박물관 분관)","제한없음","http://yeyak.seoul.go.kr/reservation/view.web?rsvsvcid=S200511104958450878","37.571266444339074","127.0350413529804","2020-05-11 00:00:00.0","2020-06-20 00:00:00.0","2020-05-11 11:00:00.0","2020-05-28 17:00:00.0","성동구"
"자체","S200513091634651844","교육","체험/견학","예약일시중지","[청계천박물관] 2020년 '꼬물꼬물 청계천 보물찾기' 상반기 교육생 추가모집","무료","청계천박물관(서울역사박물관 분관)","유아(6-7세 유치원 단체)","http://yeyak.seoul.go.kr/reservation/view.web?rsvsvcid=S200513091634651844","37.571266444339074","127.0350413529804","2020-05-13 00:00:00.0","2020-06-12 00:00:00.0","2020-05-13 11:00:00.0","2020-05-28 16:00:00.0","성동구"
"자체","S200525135239060458","교육","자연/과학","접수중","응봉공원 자연놀이터","무료","응봉공원","어린이(6세이상 어린이와 보호자)","http://yeyak.seoul.go.kr/reservation/view.web?rsvsvcid=S200525135239060458","37.5569473910838","127.02182026085195","2020-05-25 00:00:00.0","2020-06-27 00:00:00.0","2020-05-25 14:00:00.0","2020-06-26 17:00:00.0","성동구"
"자체","S200525145236960914","교육","교양","접수중","[서울숲투어] 서울숲 정원투어","무료","서울숲>방문자센터","제한없음","http://yeyak.seoul.go.kr/reservation/view.web?rsvsvcid=S200525145236960914","","","2020-05-25 00:00:00.0","2020-06-27 00:00:00.0","2020-05-25 00:00:00.0","2020-06-25 00:00:00.0","성동구"
"자체","S200525150715911068","교육","교양","접수중","이야기가있는 숲공방","유료","서울숲>서울숲 커뮤니티센터","제한없음","http://yeyak.seoul.go.kr/reservation/view.web?rsvsvcid=S200525150715911068","37.54474560346541","127.03791896997889","2020-05-25 00:00:00.0","2020-06-25 00:00:00.0","2020-05-25 00:00:00.0","2020-06-22 00:00:00.0","성동구"
"자체","S200525205051762687","교육","교양","접수중","[서울숲]가드닝워크숍 입문반","유료","서울숲>서울숲 커뮤니티센터","제한없음","http://yeyak.seoul.go.kr/reservation/view.web?rsvsvcid=S200525205051762687","37.54466451718038","127.0379076132037","2020-05-25 00:00:00.0","2020-06-27 00:00:00.0","2020-05-25 00:00:00.0","2020-06-25 00:00:00.0","성동구"