"새주소","지번주소","좌표정보","좌표정보","테마코드","콘텐츠 코드","언어셋(KOR : 국문, ENG : 영문, JP : 일문, CHA : 중문-간체, CHB : 중문-번체)","콘텐츠 명","시도명(텍스트)","구명","동명","산지여부","주 번지","부 번지","기타주소","전화번호","상세정보 값 1","상세정보 값 2","상세정보 값 3","상세정보 값 4","상세정보 값 5","상세정보 값 6","상세정보 값 7","상세정보 값 8","상세정보 값 9","상세정보 값 10","상세정보 값 11","상세정보 값 12","상세정보 값 13","상세정보 값 14","상세정보 값 15","상세정보 값 16","상세정보 값 17","상세정보 값 18","상세정보 값 19","상세정보 값 20","상세정보 이름 1","상세정보 이름 2","상세정보 이름 3","상세정보 이름 4","상세정보 이름 5","상세정보 이름 6","상세정보 이름 7","상세정보 이름 8","상세정보 이름 9","상세정보 이름 10","상세정보 이름 11","상세정보 이름 12","상세정보 이름 13","상세정보 이름 14","상세정보 이름 15","상세정보 이름 16","상세정보 이름 17","상세정보 이름 18","상세정보 이름 19","상세정보 이름 20","좌표데이터","좌표 타입 (1:Point 3:Polyline 4:MultiPolyline 5:Polygon 6:MultiPolygon 8:multiPoint)","선 두께 1~10","테마 선 색상","키워드","등록일","수정일"
"","서울특별시 송파구 잠실동 1-1","127.092811877","37.519720135","100026","HG000100","KOR","2018 한강크로스스위밍챌린지","","송파구","","","","","","","잠실","8.19(일)","09:00~17:00","","","","","","","","","","","","","","","","","","행사공원","행사날짜","시간","","","","","","","","","","","","","","","","","","","1","4","#0000FF","","2018-07-03 10:13:14.0","2018-07-03 10:13:14.0"
"","서울특별시 송파구 풍납동 49-2","127.116896393","37.541216948","100026","HG000101","KOR","강동버스킹페스티벌","","송파구","","","","","","","광나루","7.20 ~ 8. 19.(매주 금요일 일요일)","금요일: 2회(14시~16시 18시~20시) 일요일: 3회(12시~14시 15시~17시 18시~20시)","","","","","","","","","","","","","","","","","","행사공원","행사날짜","시간","","","","","","","","","","","","","","","","","","","1","4","#0000FF","","2018-07-03 10:13:14.0","2018-07-03 10:13:14.0"
"서울특별시 동작구 노량진로 191","서울특별시 동작구 노량진동 152-3","126.948820922","37.513781905","100026","HG000102","KOR","충효로드마을여행","","동작구","","","","","","","여의도","7.28(토) 8.4(토) 8.11(토)","18:00~20:00","","","","","","","","","","","","","","","","","","행사공원","행사날짜","시간","","","","","","","","","","","","","","","","","","795559633","8","4","#0000FF","","2018-07-03 10:13:14.0","2018-07-03 10:13:14.0"
"","서울특별시 영등포구 양화동 95","126.900380059","37.543416643","100026","HG000103","KOR","2018 강동패밀리 한강그린투어","","영등포구","","","","","","","여의도","8.10(금)","10:00~15:30","","","","","","","","","","","","","","","","","","행사공원","행사날짜","시간","","","","","","","","","","","","","","","","","","795559634","8","4","#0000FF","","2018-07-03 10:13:14.0","2018-07-03 10:13:14.0"
"","서울특별시 영등포구 여의도동 84-9","126.927711404","37.530897326","100026","HG000104","KOR","미라클가든","","영등포구","","","","","","","여의도","7.27(금)~8.12(일)","14:00~20:00","","","","","","","","","","","","","","","","","","행사공원","행사날짜","시간","","","","","","","","","","","","","","","","","","","1","4","#0000FF","","2018-07-03 10:13:14.0","2018-07-03 10:13:14.0"
"","서울특별시 서초구 반포동 649-1","126.996667931","37.511726329","100026","HG000105","KOR","추억의동춘서커스","","서초구","","","","","","","반포","8.3(금)~8.4(토)","20:30~21:30","","","","","","","","","","","","","","","","","","행사공원","행사날짜","시간","","","","","","","","","","","","","","","","","","","1","4","#0000FF","","2018-07-03 10:13:14.0","2018-07-03 10:13:14.0"
"","서울특별시 영등포구 여의도동 84-9","126.927552544","37.530950637","100026","HG000106","KOR","인디아나이트","","영등포구","","","","","","","여의도","8월 4일(토)","16:00~21:00","","","","","","","","","","","","","","","","","","행사공원","행사날짜","시간","","","","","","","","","","","","","","","","","","","1","4","#0000FF","","2018-07-03 10:13:14.0","2018-07-03 10:13:14.0"
"","서울특별시 영등포구 여의도동 84","126.930147494","37.529052324","100026","HG000107","KOR","마을라디오@한강","","영등포구","","","","","","","여의도","8.10(금)~8.11(토)","8.10(금)17:00~21:00/ 8.11(토)15:00~21:00","","","","","","","","","","","","","","","","","","행사공원","행사날짜","시간","","","","","","","","","","","","","","","","","","","1","4","#0000FF","","2018-07-03 10:13:14.0","2018-07-03 10:13:14.0"
"","서울특별시 영등포구 여의도동 84-9","126.928019417","37.532061560","100026","HG000108","KOR","커뮤니티댄스 빨간우산","","영등포구","","","","","","","여의도 반포","7.21(토) 반포한강공원 세빛섬 일대/ 8.11(금)여의도 한강공원 멀티플라자/ 8.12(토) 여의도 한강공원 물빛무대","추후공지","","","","","","","","","","","","","","","","","","행사공원","행사날짜","시간","","","","","","","","","","","","","","","","","","795559635","8","4","#0000FF","","2018-07-03 10:13:14.0","2018-07-03 10:13:14.0"
"","서울특별시 서초구 반포동 115-5","126.996349307","37.510731226","100026","HG000109","KOR","한강달빛서커스","","서초구","","","","","","","반포","8.3(금)~8.5(일)","18:00~22:00","","","","","","","","","","","","","","","","","","행사공원","행사날짜","시간","","","","","","","","","","","","","","","","","","","1","4","#0000FF","","2018-07-03 10:13:14.0","2018-07-03 10:13:14.0"
"","서울특별시 영등포구 여의도동 84-10","126.932923102","37.528687117","100026","HG000110","KOR","한강달빛책방","","영등포구","","","","","","","여의도잠실","8.4(토)~5(일) 8.11(토)~12(일)","18:00~22:00","","","","","","","","","","","","","","","","","","행사공원","행사날짜","시간","","","","","","","","","","","","","","","","","","795559636","8","4","#0000FF","","2018-07-03 10:13:14.0","2018-07-03 10:13:14.0"
"","서울특별시 광진구 자양동 435","127.069789621","37.528426745","100026","HG000111","KOR","한강워터파크@뚝섬","","광진구","","","","","","","뚝섬","7.20(금)~8.19(일)","추후공지","","","","","","","","","","","","","","","","","","행사공원","행사날짜","시간","","","","","","","","","","","","","","","","","","","1","4","#0000FF","","2018-07-03 10:13:14.0","2018-07-03 10:13:14.0"
"서울특별시 영등포구 여의동로 252","서울특별시 영등포구 여의도동 86","126.941637012","37.522707609","100026","HG000112","KOR","한강수상놀이터","","영등포구","","","","","","","여의도","7.20(금)~8.19(일)","10:00~19:00","","","","","","","","","","","","","","","","","","행사공원","행사날짜","시간","","","","","","","","","","","","","","","","","","","1","4","#0000FF","","2018-07-03 10:13:14.0","2018-07-03 10:13:14.0"
"","서울특별시 송파구 잠실동 1-1","127.082219734","37.517691143","100026","HG000113","KOR","화풀이DAY 춤한판해","","송파구","","","","","","","잠실","7.24 (화)","17:00~21:00","","","","","","","","","","","","","","","","","","행사공원","행사날짜","시간","","","","","","","","","","","","","","","","","","","1","4","#0000FF","","2018-07-03 10:13:14.0","2018-07-03 10:13:14.0"
"","서울특별시 강동구 천호동 484-9","127.115093276","37.544059366","100026","HG000114","KOR","광진교페스티벌","","강동구","","","","","","","광나루","8. 18.(토)","15:00 ~ 21:00","","","","","","","","","","","","","","","","","","행사공원","행사날짜","시간","","","","","","","","","","","","","","","","","","","1","4","#0000FF","","2018-07-03 10:13:14.0","2018-07-03 10:13:14.0"
"","서울특별시 영등포구 여의도동 84","126.930147100","37.529106400","100026","HG000051","KOR","다리밑헌책방축제","","영등포구","","","","","","","여의도","8.1(수) ~ 8.15(수)","11:00~21:00","","","","","","","","","","","","","","","","","","행사공원","행사날짜","시간","","","","","","","","","","","","","","","","","","","1","4","#0000FF","","2018-07-03 10:13:16.0","2018-07-03 10:13:16.0"
"","서울특별시 영등포구 여의도동 84-4","126.931717865","37.529420431","100026","HG000055","KOR","한강나무꾼놀이","","영등포구","","","","","","","여의도","8.4(토)~8.5(일)","체험13:00~18:00 공연 18:00~19:00","","","","","","","","","","","","","","","","","","행사공원","행사날짜","시간","","","","","","","","","","","","","","","","","","","1","4","#0000FF","","2018-07-03 10:13:16.0","2018-07-03 10:13:16.0"
"","서울특별시 서초구 반포동 1335-1","126.989507000","37.507763400","100026","HG000057","KOR","어린이강태공선발대회","","서초구","","","","","","","반포","8.14(화)","10:00~12:00","","","","","","","","","","","","","","","","","","행사공원","행사날짜","시간","","","","","","","","","","","","","","","","","","","1","4","#0000FF","","2018-07-03 10:13:16.0","2018-07-03 10:13:16.0"
"","서울특별시 송파구 잠실동 1-1","127.090259054","37.518864030","100026","HG000058","KOR","한강몽땅 종이배경주대회","","송파구","","","","","","","잠실","8.10(금)~8.15(수)","추후공지","","","","","","","","","","","","","","","","","","행사공원","행사날짜","시간","","","","","","","","","","","","","","","","","","","1","4","#0000FF","","2018-07-03 10:13:16.0","2018-07-03 10:13:16.0"
"","서울특별시 서초구 반포동 115-5","126.997537600","37.511538500","100026","HG000059","KOR","공중퍼포먼스 타. 오. 름","","서초구","","","","","","","반포","8.3(금)~8.4(토)","추후공지","","","","","","","","","","","","","","","","","","행사공원","행사날짜","시간","","","","","","","","","","","","","","","","","","","1","4","#0000FF","","2018-07-03 10:13:16.0","2018-07-03 10:13:16.0"
"","서울특별시 마포구 상암동 482-134","126.877562211","37.566192719","100026","HG000062","KOR","서울인기페스티벌(Seoul Soldout)","","마포구","","","","","","","난지","8.18(토)","14:00 ~ 익일 2:00","","","","","","","","","","","","","","","","","","행사공원","행사날짜","시간","","","","","","","","","","","","","","","","","","","1","4","#0000FF","","2018-07-03 10:13:16.0","2018-07-03 10:13:16.0"
"서울특별시 영등포구 여의동로 343","서울특별시 영등포구 여의도동 84-4","126.933687200","37.527915600","100026","HG000064","KOR","한강어른이놀이터","","영등포구","","","","","","","여의도","8.11(토)~8.12(일)","15:00 ~ 21:00","","","","","","","","","","","","","","","","","","행사공원","행사날짜","시간","","","","","","","","","","","","","","","","","","","1","4","#0000FF","","2018-07-03 10:13:16.0","2018-07-03 10:13:16.0"
"서울특별시 영등포구 여의동로 330","서울특별시 영등포구 여의도동 85","126.934277774","37.526521358","100026","HG000065","KOR","예술동물원 한강ZOO","","영등포구","","","","","","","여의도","8.11(토)~8.12(일)","16:00~21:30","","","","","","","","","","","","","","","","","","행사공원","행사날짜","시간","","","","","","","","","","","","","","","","","","","1","4","#0000FF","","2018-07-03 10:13:15.0","2018-07-03 10:13:15.0"
"","서울특별시 영등포구 여의도동 84-1","126.928052100","37.532224000","100026","HG000067","KOR","한강청소년밴드&댄스페스티벌","","영등포구","","","","","","","여의도","8.11(토)~8.12(일)","18:00~21:00","","","","","","","","","","","","","","","","","","행사공원","행사날짜","시간","","","","","","","","","","","","","","","","","","","1","4","#0000FF","","2018-07-03 10:13:15.0","2018-07-03 10:13:15.0"
"","서울특별시 영등포구 여의도동 85-6","126.934316351","37.528531556","100026","HG000069","KOR","쉐도우아트 ‘한강의 비밀을 찾아서’","","영등포구","","","","","","","여의도","8.10(금)~11(토)","20:00~20:40","","","","","","","","","","","","","","","","","","행사공원","행사날짜","시간","","","","","","","","","","","","","","","","","","","1","4","#0000FF","","2018-07-03 10:13:15.0","2018-07-03 10:13:15.0"
"서울특별시 서초구 올림픽대로 683","서울특별시 서초구 반포동 115-1","126.994646571","37.510705926","100026","HG000070","KOR","한강파이어댄싱페스티벌","","서초구","","","","","","","반포","7.28(토)~7.29(일)","17:00~22:00","","","","","","","","","","","","","","","","","","행사공원","행사날짜","시간","","","","","","","","","","","","","","","","","","","1","4","#0000FF","","2018-07-03 10:13:15.0","2018-07-03 10:13:15.0"
"서울특별시 서초구 올림픽대로 683","서울특별시 서초구 반포동 115-1","126.994496895","37.510669231","100026","HG000073","KOR","서울스토리패션쇼","","서초구","","","","","","","반포","8.17(금)~19(일)","17:00~21:00","","","","","","","","","","","","","","","","","","행사공원","행사날짜","시간","","","","","","","","","","","","","","","","","","","1","4","#0000FF","","2018-07-03 10:13:15.0","2018-07-03 10:13:15.0"
"","서울특별시 영등포구 여의도동 84-4","126.932686259","37.528577818","100026","HG000077","KOR","한강퍼펫파크","","영등포구","","","","","","","여의도","08.10(금)~08.12(일)","18:00~20:00","","","","","","","","","","","","","","","","","","행사공원","행사날짜","시간","","","","","","","","","","","","","","","","","","","1","4","#0000FF","","2018-07-03 10:13:15.0","2018-07-03 10:13:15.0"
"","서울특별시 강서구 방화동 17-14","126.823294373","37.584439172","100026","HG000078","KOR","찾아라! 한강보물지도","","강서구","","","","","","","이촌 강서 광나루","8.10(금)~12(일) 3일간","10:00~12:00","","","","","","","","","","","","","","","","","","행사공원","행사날짜","시간","","","","","","","","","","","","","","","","","","795559632","8","4","#0000FF","","2018-07-03 10:13:15.0","2018-07-03 10:13:15.0"
"","서울특별시 서초구 잠원동 147-1","127.013108737","37.522627284","100026","HG000079","KOR","한강모꼬지","","서초구","","","","","","","이촌","7.28(토)","15:00~21:00","","","","","","","","","","","","","","","","","","행사공원","행사날짜","시간","","","","","","","","","","","","","","","","","","","1","4","#0000FF","","2018-07-03 10:13:15.0","2018-07-03 10:13:15.0"
"","서울특별시 마포구 망원동 205-5","126.897365139","37.553735230","100026","HG000080","KOR","미스터캡틴(Mr.Captain)","","마포구","","","","","","","망원","8.4(토) 5(일) 11(토) 12(일) 15(수)","13:00~19:00","","","","","","","","","","","","","","","","","","행사공원","행사날짜","시간","","","","","","","","","","","","","","","","","","","1","4","#0000FF","","2018-07-03 10:13:15.0","2018-07-03 10:13:15.0"
"","서울특별시 영등포구 당산동 91-1","126.904589805","37.535744941","100026","HG000081","KOR","굴다리 환영展","","영등포구","","","","","","","양화","8.3(금)~8.15(수)","상시","","","","","","","","","","","","","","","","","","행사공원","행사날짜","시간","","","","","","","","","","","","","","","","","","","1","4","#0000FF","","2018-07-03 10:13:15.0","2018-07-03 10:13:15.0"
"","서울특별시 영등포구 여의도동 83-6","126.927042566","37.531407852","100026","HG000082","KOR","그린아트캠핑","","영등포구","","","","","","","여의도","7.21(토)","15:00","","","","","","","","","","","","","","","","","","행사공원","행사날짜","시간","","","","","","","","","","","","","","","","","","","1","4","#0000FF","","2018-07-03 10:13:15.0","2018-07-03 10:13:15.0"
"","서울특별시 강동구 천호동 351-1","127.119196477","37.547461763","100026","HG000083","KOR","드론체험교실","","강동구","","","","","","","광나루","7.30(월)~8.10(금)","09:00~13:00","","","","","","","","","","","","","","","","","","행사공원","행사날짜","시간","","","","","","","","","","","","","","","","","","","1","4","#0000FF","","2018-07-03 10:13:15.0","2018-07-03 10:13:15.0"
"","서울특별시 영등포구 여의도동 84-4","126.931866632","37.529204823","100026","HG000084","KOR","한강풍류문화제","","영등포구","","","","","","","여의도","8.4(토)","18:00~19:30","","","","","","","","","","","","","","","","","","행사공원","행사날짜","시간","","","","","","","","","","","","","","","","","","","1","4","#0000FF","","2018-07-03 10:13:15.0","2018-07-03 10:13:15.0"
"","서울특별시 영등포구 여의도동 85-6","126.933194373","37.529481608","100026","HG000085","KOR","어기야! 진도닻배놀이","","영등포구","","","","","","","여의도","8.4(토)~8.5(일)","추후공지","","","","","","","","","","","","","","","","","","행사공원","행사날짜","시간","","","","","","","","","","","","","","","","","","","1","4","#0000FF","","2018-07-03 10:13:15.0","2018-07-03 10:13:15.0"
"","서울특별시 영등포구 여의도동 85-6","126.934231523","37.528524389","100026","HG000086","KOR","한강소셜댄스페스타","","영등포구","","","","","","","여의도","8.3(금)~5(일","16:00~22:00","","","","","","","","","","","","","","","","","","행사공원","행사날짜","시간","","","","","","","","","","","","","","","","","","","1","4","#0000FF","","2018-07-03 10:13:15.0","2018-07-03 10:13:15.0"
"","서울특별시 서초구 반포동 115-5","126.993602528","37.509484624","100026","HG000087","KOR","서래섬킹카누투어","","서초구","","","","","","","반포","7. 20(금) ~ 8. 19(일)","10:30~20:00","","","","","","","","","","","","","","","","","","행사공원","행사날짜","시간","","","","","","","","","","","","","","","","","","","1","4","#0000FF","","2018-07-03 10:13:15.0","2018-07-03 10:13:15.0"
"서울특별시 서초구 올림픽대로 683","서울특별시 서초구 반포동 650","126.994640783","37.511564443","100026","HG000088","KOR","레이보우브릿지 요트투어","","서초구","","","","","","","반포","7.20(금)~8.19(일) 중 (금)~(일)","15:00 19:00 21:00","","","","","","","","","","","","","","","","","","행사공원","행사날짜","시간","","","","","","","","","","","","","","","","","","","1","4","#0000FF","","2018-07-03 10:13:15.0","2018-07-03 10:13:15.0"
"서울특별시 광진구 강변북로 68","서울특별시 광진구 자양동 97-5","127.065770963","37.530530223","100026","HG000089","KOR","한강그림놀이페스티벌","","광진구","자양동","","97-5","","","","뚝섬","8.15(수)~8.19(일)","12:00~18:00","","","","","","","","","","","","","","","","","","행사공원","행사날짜","시간","","","","","","","","","","","","","","","","","","","1","4","#0000FF","","2018-07-03 10:13:15.0","2018-08-15 16:19:37.0"
"서울특별시 광진구 강변북로 68","서울특별시 광진구 자양동 97-5","127.065296035","37.530456367","100026","HG000090","KOR","한강친환경에너지페스티벌","","광진구","","","","","","","뚝섬","8.3(금)~8.5(일)","10:00 ~ 22:00","","","","","","","","","","","","","","","","","","행사공원","행사날짜","시간","","","","","","","","","","","","","","","","","","","1","4","#0000FF","","2018-07-03 10:13:15.0","2018-07-03 10:13:15.0"
"","서울특별시 송파구 잠실동 1-1","127.072365586","37.519296346","100026","HG000091","KOR","한강자전거학교","","송파구","","","","","","","잠실","7.20(금)~8.19(일)","추후공지","","","","","","","","","","","","","","","","","","행사공원","행사날짜","시간","","","","","","","","","","","","","","","","","","","1","4","#0000FF","","2018-07-03 10:13:15.0","2018-07-03 10:13:15.0"
"","서울특별시 영등포구 여의도동 84-1","126.928052475","37.532178895","100026","HG000092","KOR","한강버스킹페스티벌","","영등포구","","","","","","","여의도","7.21.(토) 예정","추후공지","","","","","","","","","","","","","","","","","","행사공원","행사날짜","시간","","","","","","","","","","","","","","","","","","","1","4","#0000FF","","2018-07-03 10:13:15.0","2018-07-03 10:13:15.0"
"서울특별시 광진구 강변북로 96","서울특별시 광진구 자양동 126-1","127.067809482","37.528347407","100026","HG000094","KOR","한강패들보드(SUP)체험","","광진구","","","","","","","뚝섬","7.20(금)~8.19(일)","프로그램별 상이","","","","","","","","","","","","","","","","","","행사공원","행사날짜","시간","","","","","","","","","","","","","","","","","","","1","4","#0000FF","","2018-07-03 10:13:15.0","2018-07-03 10:13:15.0"
"","서울특별시 마포구 상암동 482-182","126.879278135","37.564092611","100026","HG000095","KOR","시네마퐁당","","마포구","","","","","","","난지","7.20(금)~8.19(일) 중 금요일 밤 (4회 예정)","추후공지","","","","","","","","","","","","","","","","","","행사공원","행사날짜","시간","","","","","","","","","","","","","","","","","","","1","4","#0000FF","","2018-07-03 10:13:15.0","2018-07-03 10:13:15.0"
"","서울특별시 영등포구 여의도동 84-4","126.932292341","37.528287492","100026","HG000097","KOR","한강빌리지","","영등포구","","","","","","","여의도","7.20(금)~21(토)","추후공지","","","","","","","","","","","","","","","","","","행사공원","행사날짜","시간","","","","","","","","","","","","","","","","","","","1","4","#0000FF","","2018-07-03 10:13:14.0","2018-07-03 10:13:14.0"
"","서울특별시 송파구 잠실동 1-1","127.082051706","37.517384087","100026","HG000098","KOR","낭만예술병원","","송파구","","","","","","","잠실","8.3(금)~8.5(일)","추후공지","","","","","","","","","","","","","","","","","","행사공원","행사날짜","시간","","","","","","","","","","","","","","","","","","","1","4","#0000FF","","2018-07-03 10:13:14.0","2018-07-03 10:13:14.0"
"","서울특별시 송파구 잠실동 1-1","127.092202177","37.519465651","100026","HG000099","KOR","제16회 서울시협회장배 아쿠아슬론대회","","송파구","","","","","","","잠실","7.22(일)","06:00~12:00","","","","","","","","","","","","","","","","","","행사공원","행사날짜","시간","","","","","","","","","","","","","","","","","","","1","4","#0000FF","","2018-07-03 10:13:14.0","2018-07-03 10:13:14.0"
"","서울특별시 서초구 잠원동 121","127.010047155","37.519225529","100026","HG000001","KOR","한강여름수영장","","서초구","잠원동","","121","","","","양화 난지 여의도 잠원 뚝섬 잠실 광나루","7.20(금)~8.19(일)","09:00~19:00","","","","","","","","","","","","","","","","","","행사공원","행사날짜","시간","","","","","","","","","","","","","","","","","","795559627","8","","#0000FF","","2018-07-03 10:13:17.0","2018-07-03 15:30:11.0"
"","서울특별시 영등포구 여의도동 49","126.922799388","37.517677641","100026","HG000002","KOR","한강몽땅 여름생태학교","","영등포구","여의도동","","49","","","","난지이촌잠원뚝섬잠실광나루","7.20(금)~8.19(일)","10:00~21:30","","","","","","","","","","","","","","","","","","행사공원","행사날짜","시간","","","","","","","","","","","","","","","","","","795559628","8","","#0000FF","","2018-07-03 13:51:00.0","2018-07-03 14:04:05.0"
"","서울특별시 영등포구 여의도동 83-6","126.927095014","37.531579363","100026","HG000003","KOR","한강여름캠핑장","","영등포구","","","","","","","여의도 뚝섬","7.13(금)~8.26(일)","15:00~익일 11:00(1박2일)","","","","","","","","","","","","","","","","","","행사공원","행사날짜","시간","","","","","","","","","","","","","","","","","","795559629","8","4","#0000FF","","2018-07-03 10:13:17.0","2018-07-03 10:13:17.0"
"","서울특별시 송파구 잠실동 1-1","127.083452000","37.517902800","100026","HG000004","KOR","한강백사장","","송파구","","","","","","","잠실","7.20(금)~8.19(일)","추후공지","","","","","","","","","","","","","","","","","","행사공원","행사날짜","시간","","","","","","","","","","","","","","","","","","","1","4","#0000FF","","2018-07-03 10:13:17.0","2018-07-03 10:13:17.0"
"서울특별시 영등포구 노들로 147","서울특별시 영등포구 양화동 1-4","126.896386200","37.543161900","100026","HG000005","KOR","한강뗏목체험","","영등포구","","","","","","","양화","7.20(금)~8.19(일)","평일 12:00~19:00(주말 공휴일 10:00~19:00)","","","","","","","","","","","","","","","","","","행사공원","행사날짜","시간","","","","","","","","","","","","","","","","","","","1","4","#0000FF","","2018-07-03 10:13:16.0","2018-08-06 16:06:00.0"
"서울특별시 영등포구 여의동로 280","서울특별시 영등포구 여의도동 85-7","126.938439681","37.525017937","100026","HG000007","KOR","몽땅크루즈타운","","영등포구","","","","","","","여의도","7.20(금)~8.19(일)","11:00~22:00","","","","","","","","","","","","","","","","","","행사공원","행사날짜","시간","","","","","","","","","","","","","","","","","","","1","4","#0000FF","","2018-07-03 10:13:16.0","2018-07-03 10:13:16.0"
"서울특별시 영등포구 선유로 343","서울특별시 영등포구 양화동 95","126.899815244","37.543269558","100026","HG000011","KOR","한강변여행이야기","","영등포구","","","","","","","반포?양화 10:00~12:00 망원 16:00~19:00","프로그램 별 상이","프로그램 별 상이","","","","","","","","","","","","","","","","","","행사공원","행사날짜","시간","","","","","","","","","","","","","","","","","","795559630","8","4","#0000FF","","2018-07-03 10:13:16.0","2018-07-03 10:13:16.0"
"","서울특별시 영등포구 여의도동 84-4","126.932595311","37.528631462","100026","HG000013","KOR","한강별빛소극장","","영등포구","","","","","","","여의도","8.10(금)~12(일)","추후공지","","","","","","","","","","","","","","","","","","행사공원","행사날짜","시간","","","","","","","","","","","","","","","","","","","1","4","#0000FF","","2018-07-03 10:13:16.0","2018-07-03 10:13:16.0"
"서울특별시 동작구 동작대로 335","서울특별시 동작구 동작동 316-3","126.979397400","37.506146400","100026","HG000017","KOR","수상안전교실","","동작구","","","","","","","반포","7.20(금)~8.19(일)","10:00~19:00","","","","","","","","","","","","","","","","","","행사공원","행사날짜","시간","","","","","","","","","","","","","","","","","","","1","4","#0000FF","","2018-07-03 10:13:16.0","2018-07-03 10:13:16.0"
"","서울특별시 서초구 잠원동 122-1","126.998623666","37.511570149","100026","HG000018","KOR","서울밤도깨비야시장@한강","","서초구","","","","","","","여의도반포","7.20(금)~8.19(일)","18:00~23:00","","","","","","","","","","","","","","","","","","행사공원","행사날짜","시간","","","","","","","","","","","","","","","","","","","8","4","#0000FF","","2018-07-03 10:13:16.0","2018-07-03 10:13:16.0"
"","서울특별시 영등포구 여의도동 84-1","126.927984225","37.532223632","100026","HG000019","KOR","한강열대야페스티벌","","영등포구","","","","","","","여의도","7.20(금)~8.19(일)(매주 금요일 일요일)","19:00~22:00","","","","","","","","","","","","","","","","","","행사공원","행사날짜","시간","","","","","","","","","","","","","","","","","","","1","4","#0000FF","","2018-07-03 10:13:16.0","2018-07-03 10:13:16.0"
"서울특별시 영등포구 63로 50","서울특별시 영등포구 여의도동 60","126.940209964","37.519830047","100026","HG000022","KOR","2018 한강포럼","","영등포구","","","","","","","반포","7.20(금)","13:00~17:00","","","","","","","","","","","","","","","","","","행사공원","행사날짜","시간","","","","","","","","","","","","","","","","","","","1","4","#0000FF","","2018-07-03 10:13:16.0","2018-07-03 10:13:16.0"
"","서울특별시 송파구 풍납동 47-20","127.115603569","37.541681452","100026","HG000028","KOR","한강다리밑영화제","","송파구","","","","","","","망원여의도뚝섬광나루","7.21(토)~8.18(토) 매주 토요일","20:00~","","","","","","","","","","","","","","","","","","행사공원","행사날짜","시간","","","","","","","","","","","","","","","","","","795559631","8","4","#0000FF","","2018-07-03 10:13:16.0","2018-07-03 10:13:16.0"
"서울특별시 광진구 강변북로 68","서울특별시 광진구 자양동 97-5","127.065572600","37.529601100","100026","HG000030","KOR","몽땅 플레이하다","","광진구","","","","","","","뚝섬","7.21(토)","추후공지","","","","","","","","","","","","","","","","","","행사공원","행사날짜","시간","","","","","","","","","","","","","","","","","","","1","4","#0000FF","","2018-07-03 10:13:16.0","2018-07-03 10:13:16.0"
"서울특별시 영등포구 여의동로 343","서울특별시 영등포구 여의도동 84-4","126.933462103","37.527752299","100026","HG000035","KOR","한강자전거한바퀴","","영등포구","","","","","","","여의도","8.15","추후공지","","","","","","","","","","","","","","","","","","행사공원","행사날짜","시간","","","","","","","","","","","","","","","","","","","1","4","#0000FF","","2018-07-03 10:13:16.0","2018-07-03 10:13:16.0"
"","서울특별시 마포구 망원동 205-8","126.894365700","37.555040400","100026","HG000037","KOR","어린이낚시체험교실","","마포구","","","","","","","망원","7.30(월)~8.10(금)","15:00~17:00","","","","","","","","","","","","","","","","","","행사공원","행사날짜","시간","","","","","","","","","","","","","","","","","","","1","4","#0000FF","","2018-07-03 10:13:16.0","2018-07-03 10:13:16.0"
"서울특별시 영등포구 여의서로 82","서울특별시 영등포구 여의도동 83-1","126.921970100","37.534231400","100026","HG000039","KOR","선상에서 한강밤섬둘러보기","","영등포구","","","","","","","여의도","7.25(수)~8.3(금) 토?일 제외","19:00~20:00(토?일 제외)","","","","","","","","","","","","","","","","","","행사공원","행사날짜","시간","","","","","","","","","","","","","","","","","","","1","4","#0000FF","","2018-07-03 10:13:16.0","2018-07-03 10:13:16.0"
"서울특별시 서초구 올림픽대로 683","서울특별시 서초구 반포동 115-1","126.994646875","37.510660860","100026","HG000042","KOR","명작영화OST콘서트","","서초구","","","","","","","반포","7.21(토)","추후공지","","","","","","","","","","","","","","","","","","행사공원","행사날짜","시간","","","","","","","","","","","","","","","","","","","1","4","#0000FF","","2018-07-03 10:13:16.0","2018-07-03 10:13:16.0"
"","서울특별시 서초구 반포동 115-5","126.994249339","37.509207975","100026","HG000043","KOR","한여름밤의재즈","","서초구","","","","","","","반포","8.14(화)~15(수)","추후공지","","","","","","","","","","","","","","","","","","행사공원","행사날짜","시간","","","","","","","","","","","","","","","","","","","1","4","#0000FF","","2018-07-03 10:13:16.0","2018-07-03 10:13:16.0"
"","서울특별시 영등포구 여의도동 85","126.937734517","37.524730656","100026","HG000044","KOR","한강나이트워크42k","","영등포구","","","","","","","여의도","7.28(토)","16:00~익일 07:00","","","","","","","","","","","","","","","","","","행사공원","행사날짜","시간","","","","","","","","","","","","","","","","","","","1","4","#0000FF","","2018-07-03 10:13:16.0","2018-07-03 10:13:16.0"
"","서울특별시 마포구 상암동 482-133","126.877688187","37.566022128","100026","HG000045","KOR","한강물싸움축제","","마포구","","","","","","","난지","8.4(토)~8.5(일)","추후공지","","","","","","","","","","","","","","","","","","행사공원","행사날짜","시간","","","","","","","","","","","","","","","","","","","1","4","#0000FF","","2018-07-03 10:13:16.0","2018-07-03 10:13:16.0"
"서울특별시 광진구 강변북로 68","서울특별시 광진구 자양동 97-5","127.065659800","37.530178300","100026","HG000047","KOR","한강별보기체험교실","","광진구","","","","","","","뚝섬","7.28~8.19 (금~일) 또는 8.1(수)~8.12(일) 중 택1 예정","추후공지","","","","","","","","","","","","","","","","","","행사공원","행사날짜","시간","","","","","","","","","","","","","","","","","","","1","4","#0000FF","","2018-07-03 10:13:16.0","2018-07-03 10:13:16.0"
"서울특별시 영등포구 여의동로 330","서울특별시 영등포구 여의도동 85","126.934336600","37.526598300","100026","HG000050","KOR","몽땅스테이지","","영등포구","","","","","","","여의도","7.20(금)~8.19(일) 매주 금토 및 8.14(화) 총 11 회","추후공지","","","","","","","","","","","","","","","","","","행사공원","행사날짜","시간","","","","","","","","","","","","","","","","","","","1","4","#0000FF","","2018-07-03 10:13:16.0","2018-07-03 10:13:16.0"